<?xml version="1.0" encoding="UTF-8" standalone="no"?>
<!DOCTYPE svg PUBLIC "-//W3C//DTD SVG 1.1//EN"
 "http://www.w3.org/Graphics/SVG/1.1/DTD/svg11.dtd">
<!-- Generated by graphviz version 2.40.1 (20161225.0304)
 -->
<!-- Title: %3 Pages: 1 -->
<svg width="1083pt" height="676pt"
 viewBox="0.00 0.00 1082.51 676.41" xmlns="http://www.w3.org/2000/svg" xmlns:xlink="http://www.w3.org/1999/xlink">
<g id="graph0" class="graph" transform="scale(1 1) rotate(0) translate(4 672.414)">
<title>%3</title>
<polygon fill="#ffffff" stroke="transparent" points="-4,4 -4,-672.414 1078.5073,-672.414 1078.5073,4 -4,4"/>
<!-- &#45;7919329577225214741 -->
<g id="node1" class="node">
<title>&#45;7919329577225214741</title>
<polygon fill="none" stroke="#000000" points="54,-189.7509 0,-189.7509 0,-153.7509 54,-153.7509 54,-189.7509"/>
<text text-anchor="middle" x="27" y="-167.5509" font-family="Times,serif" font-size="14.00" fill="#000000">(0, 0)</text>
</g>
<!-- 8206429510246080748 -->
<g id="node2" class="node">
<title>8206429510246080748</title>
<ellipse fill="none" stroke="#000000" cx="27" cy="-269.2582" rx="22.7515" ry="22.7515"/>
<text text-anchor="middle" x="27" y="-265.0582" font-family="Times,serif" font-size="14.00" fill="#000000">add</text>
</g>
<!-- 8206429510246080748&#45;&gt;&#45;7919329577225214741 -->
<g id="edge1" class="edge">
<title>8206429510246080748&#45;&gt;&#45;7919329577225214741</title>
<path fill="none" stroke="#000000" d="M27,-246.1503C27,-232.2832 27,-214.5463 27,-199.8692"/>
<polygon fill="#000000" stroke="#000000" points="30.5001,-199.8217 27,-189.8218 23.5001,-199.8218 30.5001,-199.8217"/>
</g>
<!-- 7268728660546053744 -->
<g id="node3" class="node">
<title>7268728660546053744</title>
<polygon fill="none" stroke="#000000" points="58,-579.7801 4,-579.7801 4,-543.7801 58,-543.7801 58,-579.7801"/>
<text text-anchor="middle" x="31" y="-557.5801" font-family="Times,serif" font-size="14.00" fill="#000000">(0, 0)</text>
</g>
<!-- 7268728660546053744&#45;&gt;8206429510246080748 -->
<g id="edge2" class="edge">
<title>7268728660546053744&#45;&gt;8206429510246080748</title>
<path fill="none" stroke="#000000" d="M23.7561,-543.6167C20.0288,-533.2931 15.8812,-520.0204 14,-507.7801 2.7785,-434.7663 13.4667,-347.8809 21.0077,-301.7765"/>
<polygon fill="#000000" stroke="#000000" points="24.4833,-302.2146 22.7008,-291.7708 17.5814,-301.0466 24.4833,-302.2146"/>
</g>
<!-- 7521534221788259921 -->
<g id="node46" class="node">
<title>7521534221788259921</title>
<ellipse fill="none" stroke="#000000" cx="67" cy="-464.2728" rx="43.5146" ry="43.5146"/>
<text text-anchor="middle" x="67" y="-460.0728" font-family="Times,serif" font-size="14.00" fill="#000000">transpose</text>
</g>
<!-- 7268728660546053744&#45;&gt;7521534221788259921 -->
<g id="edge38" class="edge">
<title>7268728660546053744&#45;&gt;7521534221788259921</title>
<path fill="none" stroke="#000000" d="M37.7713,-543.4397C40.8278,-535.1613 44.6034,-524.9348 48.4141,-514.6135"/>
<polygon fill="#000000" stroke="#000000" points="51.7237,-515.7545 51.9039,-505.1612 45.1569,-513.33 51.7237,-515.7545"/>
</g>
<!-- 6550718666510556862 -->
<g id="node4" class="node">
<title>6550718666510556862</title>
<polygon fill="none" stroke="#000000" points="85,-384.7655 31,-384.7655 31,-348.7655 85,-348.7655 85,-384.7655"/>
<text text-anchor="middle" x="58" y="-362.5655" font-family="Times,serif" font-size="14.00" fill="#000000">(0, 0)</text>
</g>
<!-- 6550718666510556862&#45;&gt;8206429510246080748 -->
<g id="edge3" class="edge">
<title>6550718666510556862&#45;&gt;8206429510246080748</title>
<path fill="none" stroke="#000000" d="M52.1691,-348.4251C47.9392,-335.1204 42.1098,-316.7844 37.1262,-301.109"/>
<polygon fill="#000000" stroke="#000000" points="40.3641,-299.7413 33.9987,-291.2718 33.6931,-301.8622 40.3641,-299.7413"/>
</g>
<!-- &#45;7919329577224049692 -->
<g id="node5" class="node">
<title>&#45;7919329577224049692</title>
<polygon fill="none" stroke="#000000" points="241,-36 187,-36 187,0 241,0 241,-36"/>
<text text-anchor="middle" x="214" y="-13.8" font-family="Times,serif" font-size="14.00" fill="#000000">(0, 1)</text>
</g>
<!-- 2043532671180802723 -->
<g id="node6" class="node">
<title>2043532671180802723</title>
<ellipse fill="none" stroke="#000000" cx="214" cy="-94.8754" rx="22.7515" ry="22.7515"/>
<text text-anchor="middle" x="214" y="-90.6754" font-family="Times,serif" font-size="14.00" fill="#000000">add</text>
</g>
<!-- 2043532671180802723&#45;&gt;&#45;7919329577224049692 -->
<g id="edge4" class="edge">
<title>2043532671180802723&#45;&gt;&#45;7919329577224049692</title>
<path fill="none" stroke="#000000" d="M214,-71.8103C214,-63.8494 214,-54.8353 214,-46.4924"/>
<polygon fill="#000000" stroke="#000000" points="217.5001,-46.4135 214,-36.4136 210.5001,-46.4136 217.5001,-46.4135"/>
</g>
<!-- 6550718666509391813 -->
<g id="node7" class="node">
<title>6550718666509391813</title>
<polygon fill="none" stroke="#000000" points="316,-189.7509 262,-189.7509 262,-153.7509 316,-153.7509 316,-189.7509"/>
<text text-anchor="middle" x="289" y="-167.5509" font-family="Times,serif" font-size="14.00" fill="#000000">(0, 1)</text>
</g>
<!-- 6550718666509391813&#45;&gt;2043532671180802723 -->
<g id="edge5" class="edge">
<title>6550718666509391813&#45;&gt;2043532671180802723</title>
<path fill="none" stroke="#000000" d="M271.226,-153.5325C261.0898,-143.1427 248.2654,-129.9977 237.3274,-118.7861"/>
<polygon fill="#000000" stroke="#000000" points="239.6009,-116.1045 230.1124,-111.3907 234.5904,-120.9928 239.6009,-116.1045"/>
</g>
<!-- 7268728660544888695 -->
<g id="node8" class="node">
<title>7268728660544888695</title>
<polygon fill="none" stroke="#000000" points="202,-579.7801 148,-579.7801 148,-543.7801 202,-543.7801 202,-579.7801"/>
<text text-anchor="middle" x="175" y="-557.5801" font-family="Times,serif" font-size="14.00" fill="#000000">(0, 1)</text>
</g>
<!-- 7268728660544888695&#45;&gt;2043532671180802723 -->
<g id="edge6" class="edge">
<title>7268728660544888695&#45;&gt;2043532671180802723</title>
<path fill="none" stroke="#000000" d="M168.3865,-543.4981C164.8564,-533.1374 160.6961,-519.8671 158,-507.7801 144.2325,-446.0574 139,-430.005 139,-366.7655 139,-366.7655 139,-366.7655 139,-269.2582 139,-213.5289 171.7248,-155.3354 193.9414,-122.2496"/>
<polygon fill="#000000" stroke="#000000" points="197.1043,-123.8277 199.8931,-113.6064 191.3389,-119.8576 197.1043,-123.8277"/>
</g>
<!-- 7789441259287130728 -->
<g id="node49" class="node">
<title>7789441259287130728</title>
<ellipse fill="none" stroke="#000000" cx="211" cy="-464.2728" rx="43.5146" ry="43.5146"/>
<text text-anchor="middle" x="211" y="-460.0728" font-family="Times,serif" font-size="14.00" fill="#000000">transpose</text>
</g>
<!-- 7268728660544888695&#45;&gt;7789441259287130728 -->
<g id="edge44" class="edge">
<title>7268728660544888695&#45;&gt;7789441259287130728</title>
<path fill="none" stroke="#000000" d="M181.7713,-543.4397C184.8278,-535.1613 188.6034,-524.9348 192.4141,-514.6135"/>
<polygon fill="#000000" stroke="#000000" points="195.7237,-515.7545 195.9039,-505.1612 189.1569,-513.33 195.7237,-515.7545"/>
</g>
<!-- &#45;7919329577222884643 -->
<g id="node9" class="node">
<title>&#45;7919329577222884643</title>
<polygon fill="none" stroke="#000000" points="466,-189.7509 412,-189.7509 412,-153.7509 466,-153.7509 466,-189.7509"/>
<text text-anchor="middle" x="439" y="-167.5509" font-family="Times,serif" font-size="14.00" fill="#000000">(0, 2)</text>
</g>
<!-- 4036897149101874498 -->
<g id="node10" class="node">
<title>4036897149101874498</title>
<ellipse fill="none" stroke="#000000" cx="439" cy="-269.2582" rx="22.7515" ry="22.7515"/>
<text text-anchor="middle" x="439" y="-265.0582" font-family="Times,serif" font-size="14.00" fill="#000000">add</text>
</g>
<!-- 4036897149101874498&#45;&gt;&#45;7919329577222884643 -->
<g id="edge7" class="edge">
<title>4036897149101874498&#45;&gt;&#45;7919329577222884643</title>
<path fill="none" stroke="#000000" d="M439,-246.1503C439,-232.2832 439,-214.5463 439,-199.8692"/>
<polygon fill="#000000" stroke="#000000" points="442.5001,-199.8217 439,-189.8218 435.5001,-199.8218 442.5001,-199.8217"/>
</g>
<!-- 7268728660548383842 -->
<g id="node11" class="node">
<title>7268728660548383842</title>
<polygon fill="none" stroke="#000000" points="550,-384.7655 496,-384.7655 496,-348.7655 550,-348.7655 550,-384.7655"/>
<text text-anchor="middle" x="523" y="-362.5655" font-family="Times,serif" font-size="14.00" fill="#000000">(0, 2)</text>
</g>
<!-- 7268728660548383842&#45;&gt;4036897149101874498 -->
<g id="edge8" class="edge">
<title>7268728660548383842&#45;&gt;4036897149101874498</title>
<path fill="none" stroke="#000000" d="M503.8543,-348.7024C493.4309,-338.5195 480.5475,-325.35 470,-312.7655 465.7776,-307.7276 461.517,-302.1445 457.5631,-296.7041"/>
<polygon fill="#000000" stroke="#000000" points="460.2925,-294.5024 451.6518,-288.3715 454.5832,-298.5527 460.2925,-294.5024"/>
</g>
<!-- &#45;533370936018820037 -->
<g id="node52" class="node">
<title>&#45;533370936018820037</title>
<ellipse fill="none" stroke="#000000" cx="523" cy="-269.2582" rx="43.5146" ry="43.5146"/>
<text text-anchor="middle" x="523" y="-265.0582" font-family="Times,serif" font-size="14.00" fill="#000000">transpose</text>
</g>
<!-- 7268728660548383842&#45;&gt;&#45;533370936018820037 -->
<g id="edge50" class="edge">
<title>7268728660548383842&#45;&gt;&#45;533370936018820037</title>
<path fill="none" stroke="#000000" d="M523,-348.4251C523,-341.1301 523,-332.3226 523,-323.2704"/>
<polygon fill="#000000" stroke="#000000" points="526.5001,-323.0138 523,-313.0138 519.5001,-323.0138 526.5001,-323.0138"/>
</g>
<!-- 6550718666508226764 -->
<g id="node12" class="node">
<title>6550718666508226764</title>
<polygon fill="none" stroke="#000000" points="466,-384.7655 412,-384.7655 412,-348.7655 466,-348.7655 466,-384.7655"/>
<text text-anchor="middle" x="439" y="-362.5655" font-family="Times,serif" font-size="14.00" fill="#000000">(0, 2)</text>
</g>
<!-- 6550718666508226764&#45;&gt;4036897149101874498 -->
<g id="edge9" class="edge">
<title>6550718666508226764&#45;&gt;4036897149101874498</title>
<path fill="none" stroke="#000000" d="M439,-348.4251C439,-335.516 439,-317.8705 439,-302.5143"/>
<polygon fill="#000000" stroke="#000000" points="442.5001,-302.3351 439,-292.3352 435.5001,-302.3352 442.5001,-302.3351"/>
</g>
<!-- &#45;7919328316028215918 -->
<g id="node13" class="node">
<title>&#45;7919328316028215918</title>
<polygon fill="none" stroke="#000000" points="238,-189.7509 184,-189.7509 184,-153.7509 238,-153.7509 238,-189.7509"/>
<text text-anchor="middle" x="211" y="-167.5509" font-family="Times,serif" font-size="14.00" fill="#000000">(1, 0)</text>
</g>
<!-- 538727415499906005 -->
<g id="node14" class="node">
<title>538727415499906005</title>
<ellipse fill="none" stroke="#000000" cx="211" cy="-269.2582" rx="22.7515" ry="22.7515"/>
<text text-anchor="middle" x="211" y="-265.0582" font-family="Times,serif" font-size="14.00" fill="#000000">add</text>
</g>
<!-- 538727415499906005&#45;&gt;&#45;7919328316028215918 -->
<g id="edge10" class="edge">
<title>538727415499906005&#45;&gt;&#45;7919328316028215918</title>
<path fill="none" stroke="#000000" d="M211,-246.1503C211,-232.2832 211,-214.5463 211,-199.8692"/>
<polygon fill="#000000" stroke="#000000" points="214.5001,-199.8217 211,-189.8218 207.5001,-199.8218 214.5001,-199.8217"/>
</g>
<!-- 7268727399349054921 -->
<g id="node15" class="node">
<title>7268727399349054921</title>
<polygon fill="none" stroke="#000000" points="322,-384.7655 268,-384.7655 268,-348.7655 322,-348.7655 322,-384.7655"/>
<text text-anchor="middle" x="295" y="-362.5655" font-family="Times,serif" font-size="14.00" fill="#000000">(1, 0)</text>
</g>
<!-- 7268727399349054921&#45;&gt;538727415499906005 -->
<g id="edge11" class="edge">
<title>7268727399349054921&#45;&gt;538727415499906005</title>
<path fill="none" stroke="#000000" d="M275.8543,-348.7024C265.4309,-338.5195 252.5475,-325.35 242,-312.7655 237.7776,-307.7276 233.517,-302.1445 229.5631,-296.7041"/>
<polygon fill="#000000" stroke="#000000" points="232.2925,-294.5024 223.6518,-288.3715 226.5832,-298.5527 232.2925,-294.5024"/>
</g>
<!-- 6781745110059698330 -->
<g id="node47" class="node">
<title>6781745110059698330</title>
<ellipse fill="none" stroke="#000000" cx="295" cy="-269.2582" rx="43.5146" ry="43.5146"/>
<text text-anchor="middle" x="295" y="-265.0582" font-family="Times,serif" font-size="14.00" fill="#000000">transpose</text>
</g>
<!-- 7268727399349054921&#45;&gt;6781745110059698330 -->
<g id="edge40" class="edge">
<title>7268727399349054921&#45;&gt;6781745110059698330</title>
<path fill="none" stroke="#000000" d="M295,-348.4251C295,-341.1301 295,-332.3226 295,-323.2704"/>
<polygon fill="#000000" stroke="#000000" points="298.5001,-323.0138 295,-313.0138 291.5001,-323.0138 298.5001,-323.0138"/>
</g>
<!-- 6550717405313558039 -->
<g id="node16" class="node">
<title>6550717405313558039</title>
<polygon fill="none" stroke="#000000" points="238,-384.7655 184,-384.7655 184,-348.7655 238,-348.7655 238,-384.7655"/>
<text text-anchor="middle" x="211" y="-362.5655" font-family="Times,serif" font-size="14.00" fill="#000000">(1, 0)</text>
</g>
<!-- 6550717405313558039&#45;&gt;538727415499906005 -->
<g id="edge12" class="edge">
<title>6550717405313558039&#45;&gt;538727415499906005</title>
<path fill="none" stroke="#000000" d="M211,-348.4251C211,-335.516 211,-317.8705 211,-302.5143"/>
<polygon fill="#000000" stroke="#000000" points="214.5001,-302.3351 211,-292.3352 207.5001,-302.3352 214.5001,-302.3351"/>
</g>
<!-- &#45;7919328316029380967 -->
<g id="node17" class="node">
<title>&#45;7919328316029380967</title>
<polygon fill="none" stroke="#000000" points="653,-189.7509 599,-189.7509 599,-153.7509 653,-153.7509 653,-189.7509"/>
<text text-anchor="middle" x="626" y="-167.5509" font-family="Times,serif" font-size="14.00" fill="#000000">(1, 1)</text>
</g>
<!-- &#45;310405410180519586 -->
<g id="node18" class="node">
<title>&#45;310405410180519586</title>
<ellipse fill="none" stroke="#000000" cx="626" cy="-269.2582" rx="22.7515" ry="22.7515"/>
<text text-anchor="middle" x="626" y="-265.0582" font-family="Times,serif" font-size="14.00" fill="#000000">add</text>
</g>
<!-- &#45;310405410180519586&#45;&gt;&#45;7919328316029380967 -->
<g id="edge13" class="edge">
<title>&#45;310405410180519586&#45;&gt;&#45;7919328316029380967</title>
<path fill="none" stroke="#000000" d="M626,-246.1503C626,-232.2832 626,-214.5463 626,-199.8692"/>
<polygon fill="#000000" stroke="#000000" points="629.5001,-199.8217 626,-189.8218 622.5001,-199.8218 629.5001,-199.8217"/>
</g>
<!-- 6550717405314723088 -->
<g id="node19" class="node">
<title>6550717405314723088</title>
<polygon fill="none" stroke="#000000" points="672,-384.7655 618,-384.7655 618,-348.7655 672,-348.7655 672,-384.7655"/>
<text text-anchor="middle" x="645" y="-362.5655" font-family="Times,serif" font-size="14.00" fill="#000000">(1, 1)</text>
</g>
<!-- 6550717405314723088&#45;&gt;&#45;310405410180519586 -->
<g id="edge14" class="edge">
<title>6550717405314723088&#45;&gt;&#45;310405410180519586</title>
<path fill="none" stroke="#000000" d="M641.4262,-348.4251C638.8934,-335.4264 635.4247,-317.6252 632.4179,-302.1947"/>
<polygon fill="#000000" stroke="#000000" points="635.7754,-301.1249 630.4273,-291.979 628.9046,-302.4638 635.7754,-301.1249"/>
</g>
<!-- 7268727399350219970 -->
<g id="node20" class="node">
<title>7268727399350219970</title>
<polygon fill="none" stroke="#000000" points="644,-579.7801 590,-579.7801 590,-543.7801 644,-543.7801 644,-579.7801"/>
<text text-anchor="middle" x="617" y="-557.5801" font-family="Times,serif" font-size="14.00" fill="#000000">(1, 1)</text>
</g>
<!-- 7268727399350219970&#45;&gt;&#45;310405410180519586 -->
<g id="edge15" class="edge">
<title>7268727399350219970&#45;&gt;&#45;310405410180519586</title>
<path fill="none" stroke="#000000" d="M609.7561,-543.6167C606.0288,-533.2931 601.8812,-520.0204 600,-507.7801 588.6995,-434.2516 605.819,-347.232 617.2057,-301.3281"/>
<polygon fill="#000000" stroke="#000000" points="620.6642,-301.9303 619.7461,-291.3753 613.8816,-300.199 620.6642,-301.9303"/>
</g>
<!-- 3002877650758473487 -->
<g id="node50" class="node">
<title>3002877650758473487</title>
<ellipse fill="none" stroke="#000000" cx="653" cy="-464.2728" rx="43.5146" ry="43.5146"/>
<text text-anchor="middle" x="653" y="-460.0728" font-family="Times,serif" font-size="14.00" fill="#000000">transpose</text>
</g>
<!-- 7268727399350219970&#45;&gt;3002877650758473487 -->
<g id="edge46" class="edge">
<title>7268727399350219970&#45;&gt;3002877650758473487</title>
<path fill="none" stroke="#000000" d="M623.7713,-543.4397C626.8278,-535.1613 630.6034,-524.9348 634.4141,-514.6135"/>
<polygon fill="#000000" stroke="#000000" points="637.7237,-515.7545 637.9039,-505.1612 631.1569,-513.33 637.7237,-515.7545"/>
</g>
<!-- &#45;7919328316030546016 -->
<g id="node21" class="node">
<title>&#45;7919328316030546016</title>
<polygon fill="none" stroke="#000000" points="827,-36 773,-36 773,0 827,0 827,-36"/>
<text text-anchor="middle" x="800" y="-13.8" font-family="Times,serif" font-size="14.00" fill="#000000">(1, 2)</text>
</g>
<!-- &#45;4100917960083568961 -->
<g id="node22" class="node">
<title>&#45;4100917960083568961</title>
<ellipse fill="none" stroke="#000000" cx="800" cy="-94.8754" rx="22.7515" ry="22.7515"/>
<text text-anchor="middle" x="800" y="-90.6754" font-family="Times,serif" font-size="14.00" fill="#000000">add</text>
</g>
<!-- &#45;4100917960083568961&#45;&gt;&#45;7919328316030546016 -->
<g id="edge16" class="edge">
<title>&#45;4100917960083568961&#45;&gt;&#45;7919328316030546016</title>
<path fill="none" stroke="#000000" d="M800,-71.8103C800,-63.8494 800,-54.8353 800,-46.4924"/>
<polygon fill="#000000" stroke="#000000" points="803.5001,-46.4135 800,-36.4136 796.5001,-46.4136 803.5001,-46.4135"/>
</g>
<!-- 6550717405315888137 -->
<g id="node23" class="node">
<title>6550717405315888137</title>
<polygon fill="none" stroke="#000000" points="902,-189.7509 848,-189.7509 848,-153.7509 902,-153.7509 902,-189.7509"/>
<text text-anchor="middle" x="875" y="-167.5509" font-family="Times,serif" font-size="14.00" fill="#000000">(1, 2)</text>
</g>
<!-- 6550717405315888137&#45;&gt;&#45;4100917960083568961 -->
<g id="edge17" class="edge">
<title>6550717405315888137&#45;&gt;&#45;4100917960083568961</title>
<path fill="none" stroke="#000000" d="M857.226,-153.5325C847.0898,-143.1427 834.2654,-129.9977 823.3274,-118.7861"/>
<polygon fill="#000000" stroke="#000000" points="825.6009,-116.1045 816.1124,-111.3907 820.5904,-120.9928 825.6009,-116.1045"/>
</g>
<!-- 7268727399346724823 -->
<g id="node24" class="node">
<title>7268727399346724823</title>
<polygon fill="none" stroke="#000000" points="788,-579.7801 734,-579.7801 734,-543.7801 788,-543.7801 788,-579.7801"/>
<text text-anchor="middle" x="761" y="-557.5801" font-family="Times,serif" font-size="14.00" fill="#000000">(1, 2)</text>
</g>
<!-- 7268727399346724823&#45;&gt;&#45;4100917960083568961 -->
<g id="edge18" class="edge">
<title>7268727399346724823&#45;&gt;&#45;4100917960083568961</title>
<path fill="none" stroke="#000000" d="M754.3865,-543.4981C750.8564,-533.1374 746.6961,-519.8671 744,-507.7801 730.2325,-446.0574 725,-430.005 725,-366.7655 725,-366.7655 725,-366.7655 725,-269.2582 725,-213.5289 757.7248,-155.3354 779.9414,-122.2496"/>
<polygon fill="#000000" stroke="#000000" points="783.1043,-123.8277 785.8931,-113.6064 777.3389,-119.8576 783.1043,-123.8277"/>
</g>
<!-- 6910322827538865604 -->
<g id="node53" class="node">
<title>6910322827538865604</title>
<ellipse fill="none" stroke="#000000" cx="797" cy="-464.2728" rx="43.5146" ry="43.5146"/>
<text text-anchor="middle" x="797" y="-460.0728" font-family="Times,serif" font-size="14.00" fill="#000000">transpose</text>
</g>
<!-- 7268727399346724823&#45;&gt;6910322827538865604 -->
<g id="edge52" class="edge">
<title>7268727399346724823&#45;&gt;6910322827538865604</title>
<path fill="none" stroke="#000000" d="M767.7713,-543.4397C770.8278,-535.1613 774.6034,-524.9348 778.4141,-514.6135"/>
<polygon fill="#000000" stroke="#000000" points="781.7237,-515.7545 781.9039,-505.1612 775.1569,-513.33 781.7237,-515.7545"/>
</g>
<!-- &#45;7919327054831217095 -->
<g id="node25" class="node">
<title>&#45;7919327054831217095</title>
<polygon fill="none" stroke="#000000" points="469,-36 415,-36 415,0 469,0 469,-36"/>
<text text-anchor="middle" x="442" y="-13.8" font-family="Times,serif" font-size="14.00" fill="#000000">(2, 0)</text>
</g>
<!-- 554579619894905598 -->
<g id="node26" class="node">
<title>554579619894905598</title>
<ellipse fill="none" stroke="#000000" cx="442" cy="-94.8754" rx="22.7515" ry="22.7515"/>
<text text-anchor="middle" x="442" y="-90.6754" font-family="Times,serif" font-size="14.00" fill="#000000">add</text>
</g>
<!-- 554579619894905598&#45;&gt;&#45;7919327054831217095 -->
<g id="edge19" class="edge">
<title>554579619894905598&#45;&gt;&#45;7919327054831217095</title>
<path fill="none" stroke="#000000" d="M442,-71.8103C442,-63.8494 442,-54.8353 442,-46.4924"/>
<polygon fill="#000000" stroke="#000000" points="445.5001,-46.4135 442,-36.4136 438.5001,-46.4136 445.5001,-46.4135"/>
</g>
<!-- 7268726138152056098 -->
<g id="node27" class="node">
<title>7268726138152056098</title>
<polygon fill="none" stroke="#000000" points="430,-579.7801 376,-579.7801 376,-543.7801 430,-543.7801 430,-579.7801"/>
<text text-anchor="middle" x="403" y="-557.5801" font-family="Times,serif" font-size="14.00" fill="#000000">(2, 0)</text>
</g>
<!-- 7268726138152056098&#45;&gt;554579619894905598 -->
<g id="edge20" class="edge">
<title>7268726138152056098&#45;&gt;554579619894905598</title>
<path fill="none" stroke="#000000" d="M396.3865,-543.4981C392.8564,-533.1374 388.6961,-519.8671 386,-507.7801 372.2325,-446.0574 367,-430.005 367,-366.7655 367,-366.7655 367,-366.7655 367,-269.2582 367,-213.5289 399.7248,-155.3354 421.9414,-122.2496"/>
<polygon fill="#000000" stroke="#000000" points="425.1043,-123.8277 427.8931,-113.6064 419.3389,-119.8576 425.1043,-123.8277"/>
</g>
<!-- &#45;4380608228456035845 -->
<g id="node48" class="node">
<title>&#45;4380608228456035845</title>
<ellipse fill="none" stroke="#000000" cx="439" cy="-464.2728" rx="43.5146" ry="43.5146"/>
<text text-anchor="middle" x="439" y="-460.0728" font-family="Times,serif" font-size="14.00" fill="#000000">transpose</text>
</g>
<!-- 7268726138152056098&#45;&gt;&#45;4380608228456035845 -->
<g id="edge42" class="edge">
<title>7268726138152056098&#45;&gt;&#45;4380608228456035845</title>
<path fill="none" stroke="#000000" d="M409.7713,-543.4397C412.8278,-535.1613 416.6034,-524.9348 420.4141,-514.6135"/>
<polygon fill="#000000" stroke="#000000" points="423.7237,-515.7545 423.9039,-505.1612 417.1569,-513.33 423.7237,-515.7545"/>
</g>
<!-- 6550721188904554508 -->
<g id="node28" class="node">
<title>6550721188904554508</title>
<polygon fill="none" stroke="#000000" points="544,-189.7509 490,-189.7509 490,-153.7509 544,-153.7509 544,-189.7509"/>
<text text-anchor="middle" x="517" y="-167.5509" font-family="Times,serif" font-size="14.00" fill="#000000">(2, 0)</text>
</g>
<!-- 6550721188904554508&#45;&gt;554579619894905598 -->
<g id="edge21" class="edge">
<title>6550721188904554508&#45;&gt;554579619894905598</title>
<path fill="none" stroke="#000000" d="M499.226,-153.5325C489.0898,-143.1427 476.2654,-129.9977 465.3274,-118.7861"/>
<polygon fill="#000000" stroke="#000000" points="467.6009,-116.1045 458.1124,-111.3907 462.5904,-120.9928 467.6009,-116.1045"/>
</g>
<!-- &#45;7919327054830052046 -->
<g id="node29" class="node">
<title>&#45;7919327054830052046</title>
<polygon fill="none" stroke="#000000" points="824,-189.7509 770,-189.7509 770,-153.7509 824,-153.7509 824,-189.7509"/>
<text text-anchor="middle" x="797" y="-167.5509" font-family="Times,serif" font-size="14.00" fill="#000000">(2, 1)</text>
</g>
<!-- 1294283113907158389 -->
<g id="node30" class="node">
<title>1294283113907158389</title>
<ellipse fill="none" stroke="#000000" cx="797" cy="-269.2582" rx="22.7515" ry="22.7515"/>
<text text-anchor="middle" x="797" y="-265.0582" font-family="Times,serif" font-size="14.00" fill="#000000">add</text>
</g>
<!-- 1294283113907158389&#45;&gt;&#45;7919327054830052046 -->
<g id="edge22" class="edge">
<title>1294283113907158389&#45;&gt;&#45;7919327054830052046</title>
<path fill="none" stroke="#000000" d="M797,-246.1503C797,-232.2832 797,-214.5463 797,-199.8692"/>
<polygon fill="#000000" stroke="#000000" points="800.5001,-199.8217 797,-189.8218 793.5001,-199.8218 800.5001,-199.8217"/>
</g>
<!-- 7268726138150891049 -->
<g id="node31" class="node">
<title>7268726138150891049</title>
<polygon fill="none" stroke="#000000" points="908,-384.7655 854,-384.7655 854,-348.7655 908,-348.7655 908,-384.7655"/>
<text text-anchor="middle" x="881" y="-362.5655" font-family="Times,serif" font-size="14.00" fill="#000000">(2, 1)</text>
</g>
<!-- 7268726138150891049&#45;&gt;1294283113907158389 -->
<g id="edge23" class="edge">
<title>7268726138150891049&#45;&gt;1294283113907158389</title>
<path fill="none" stroke="#000000" d="M861.8543,-348.7024C851.4309,-338.5195 838.5475,-325.35 828,-312.7655 823.7776,-307.7276 819.517,-302.1445 815.5631,-296.7041"/>
<polygon fill="#000000" stroke="#000000" points="818.2925,-294.5024 809.6518,-288.3715 812.5832,-298.5527 818.2925,-294.5024"/>
</g>
<!-- 4217288756584774062 -->
<g id="node51" class="node">
<title>4217288756584774062</title>
<ellipse fill="none" stroke="#000000" cx="881" cy="-269.2582" rx="43.5146" ry="43.5146"/>
<text text-anchor="middle" x="881" y="-265.0582" font-family="Times,serif" font-size="14.00" fill="#000000">transpose</text>
</g>
<!-- 7268726138150891049&#45;&gt;4217288756584774062 -->
<g id="edge48" class="edge">
<title>7268726138150891049&#45;&gt;4217288756584774062</title>
<path fill="none" stroke="#000000" d="M881,-348.4251C881,-341.1301 881,-332.3226 881,-323.2704"/>
<polygon fill="#000000" stroke="#000000" points="884.5001,-323.0138 881,-313.0138 877.5001,-323.0138 884.5001,-323.0138"/>
</g>
<!-- 6550721188903389459 -->
<g id="node32" class="node">
<title>6550721188903389459</title>
<polygon fill="none" stroke="#000000" points="824,-384.7655 770,-384.7655 770,-348.7655 824,-348.7655 824,-384.7655"/>
<text text-anchor="middle" x="797" y="-362.5655" font-family="Times,serif" font-size="14.00" fill="#000000">(2, 1)</text>
</g>
<!-- 6550721188903389459&#45;&gt;1294283113907158389 -->
<g id="edge24" class="edge">
<title>6550721188903389459&#45;&gt;1294283113907158389</title>
<path fill="none" stroke="#000000" d="M797,-348.4251C797,-335.516 797,-317.8705 797,-302.5143"/>
<polygon fill="#000000" stroke="#000000" points="800.5001,-302.3351 797,-292.3352 793.5001,-302.3352 800.5001,-302.3351"/>
</g>
<!-- &#45;7919327054833547193 -->
<g id="node33" class="node">
<title>&#45;7919327054833547193</title>
<polygon fill="none" stroke="#000000" points="1006,-189.7509 952,-189.7509 952,-153.7509 1006,-153.7509 1006,-189.7509"/>
<text text-anchor="middle" x="979" y="-167.5509" font-family="Times,serif" font-size="14.00" fill="#000000">(2, 2)</text>
</g>
<!-- &#45;3394159325922562952 -->
<g id="node34" class="node">
<title>&#45;3394159325922562952</title>
<ellipse fill="none" stroke="#000000" cx="979" cy="-269.2582" rx="22.7515" ry="22.7515"/>
<text text-anchor="middle" x="979" y="-265.0582" font-family="Times,serif" font-size="14.00" fill="#000000">add</text>
</g>
<!-- &#45;3394159325922562952&#45;&gt;&#45;7919327054833547193 -->
<g id="edge25" class="edge">
<title>&#45;3394159325922562952&#45;&gt;&#45;7919327054833547193</title>
<path fill="none" stroke="#000000" d="M979,-246.1503C979,-232.2832 979,-214.5463 979,-199.8692"/>
<polygon fill="#000000" stroke="#000000" points="982.5001,-199.8217 979,-189.8218 975.5001,-199.8218 982.5001,-199.8217"/>
</g>
<!-- 7268726138149726000 -->
<g id="node35" class="node">
<title>7268726138149726000</title>
<polygon fill="none" stroke="#000000" points="1022,-579.7801 968,-579.7801 968,-543.7801 1022,-543.7801 1022,-579.7801"/>
<text text-anchor="middle" x="995" y="-557.5801" font-family="Times,serif" font-size="14.00" fill="#000000">(2, 2)</text>
</g>
<!-- 7268726138149726000&#45;&gt;&#45;3394159325922562952 -->
<g id="edge26" class="edge">
<title>7268726138149726000&#45;&gt;&#45;3394159325922562952</title>
<path fill="none" stroke="#000000" d="M987.7561,-543.6167C984.0288,-533.2931 979.8812,-520.0204 978,-507.7801 966.8243,-435.0637 971.6418,-348.399 975.6368,-302.1676"/>
<polygon fill="#000000" stroke="#000000" points="979.1299,-302.4011 976.5474,-292.1258 972.1585,-301.7688 979.1299,-302.4011"/>
</g>
<!-- &#45;126456760796043887 -->
<g id="node54" class="node">
<title>&#45;126456760796043887</title>
<ellipse fill="none" stroke="#000000" cx="1031" cy="-464.2728" rx="43.5146" ry="43.5146"/>
<text text-anchor="middle" x="1031" y="-460.0728" font-family="Times,serif" font-size="14.00" fill="#000000">transpose</text>
</g>
<!-- 7268726138149726000&#45;&gt;&#45;126456760796043887 -->
<g id="edge54" class="edge">
<title>7268726138149726000&#45;&gt;&#45;126456760796043887</title>
<path fill="none" stroke="#000000" d="M1001.7713,-543.4397C1004.8278,-535.1613 1008.6034,-524.9348 1012.4141,-514.6135"/>
<polygon fill="#000000" stroke="#000000" points="1015.7237,-515.7545 1015.9039,-505.1612 1009.1569,-513.33 1015.7237,-515.7545"/>
</g>
<!-- 6550721188906884606 -->
<g id="node36" class="node">
<title>6550721188906884606</title>
<polygon fill="none" stroke="#000000" points="1049,-384.7655 995,-384.7655 995,-348.7655 1049,-348.7655 1049,-384.7655"/>
<text text-anchor="middle" x="1022" y="-362.5655" font-family="Times,serif" font-size="14.00" fill="#000000">(2, 2)</text>
</g>
<!-- 6550721188906884606&#45;&gt;&#45;3394159325922562952 -->
<g id="edge27" class="edge">
<title>6550721188906884606&#45;&gt;&#45;3394159325922562952</title>
<path fill="none" stroke="#000000" d="M1013.912,-348.4251C1007.868,-334.7196 999.4695,-315.675 992.4245,-299.6997"/>
<polygon fill="#000000" stroke="#000000" points="995.4835,-297.9621 988.246,-290.2246 989.0787,-300.7867 995.4835,-297.9621"/>
</g>
<!-- 2517595652216299887 -->
<g id="node37" class="node">
<title>2517595652216299887</title>
<ellipse fill="none" stroke="#000000" cx="31" cy="-642.0971" rx="26.1352" ry="26.1352"/>
<text text-anchor="middle" x="31" y="-637.8971" font-family="Times,serif" font-size="14.00" fill="#000000">ones</text>
</g>
<!-- 2517595652216299887&#45;&gt;7268728660546053744 -->
<g id="edge28" class="edge">
<title>2517595652216299887&#45;&gt;7268728660546053744</title>
<path fill="none" stroke="#000000" d="M31,-615.3527C31,-607.23 31,-598.28 31,-590.0598"/>
<polygon fill="#000000" stroke="#000000" points="34.5001,-589.8048 31,-579.8048 27.5001,-589.8049 34.5001,-589.8048"/>
</g>
<!-- &#45;9200344847603160888 -->
<g id="node38" class="node">
<title>&#45;9200344847603160888</title>
<ellipse fill="none" stroke="#000000" cx="175" cy="-642.0971" rx="26.1352" ry="26.1352"/>
<text text-anchor="middle" x="175" y="-637.8971" font-family="Times,serif" font-size="14.00" fill="#000000">ones</text>
</g>
<!-- &#45;9200344847603160888&#45;&gt;7268728660544888695 -->
<g id="edge29" class="edge">
<title>&#45;9200344847603160888&#45;&gt;7268728660544888695</title>
<path fill="none" stroke="#000000" d="M175,-615.3527C175,-607.23 175,-598.28 175,-590.0598"/>
<polygon fill="#000000" stroke="#000000" points="178.5001,-589.8048 175,-579.8048 171.5001,-589.8049 178.5001,-589.8048"/>
</g>
<!-- 3505685796124663237 -->
<g id="node39" class="node">
<title>3505685796124663237</title>
<ellipse fill="none" stroke="#000000" cx="527" cy="-464.2728" rx="26.1352" ry="26.1352"/>
<text text-anchor="middle" x="527" y="-460.0728" font-family="Times,serif" font-size="14.00" fill="#000000">ones</text>
</g>
<!-- 3505685796124663237&#45;&gt;7268728660548383842 -->
<g id="edge30" class="edge">
<title>3505685796124663237&#45;&gt;7268728660548383842</title>
<path fill="none" stroke="#000000" d="M525.9175,-437.8859C525.3735,-424.6238 524.7138,-408.5425 524.1594,-395.0288"/>
<polygon fill="#000000" stroke="#000000" points="527.6487,-394.6925 523.7416,-384.8444 520.6546,-394.9795 527.6487,-394.6925"/>
</g>
<!-- &#45;4640200166349865362 -->
<g id="node40" class="node">
<title>&#45;4640200166349865362</title>
<ellipse fill="none" stroke="#000000" cx="299" cy="-464.2728" rx="26.1352" ry="26.1352"/>
<text text-anchor="middle" x="299" y="-460.0728" font-family="Times,serif" font-size="14.00" fill="#000000">ones</text>
</g>
<!-- &#45;4640200166349865362&#45;&gt;7268727399349054921 -->
<g id="edge31" class="edge">
<title>&#45;4640200166349865362&#45;&gt;7268727399349054921</title>
<path fill="none" stroke="#000000" d="M297.9175,-437.8859C297.3735,-424.6238 296.7138,-408.5425 296.1594,-395.0288"/>
<polygon fill="#000000" stroke="#000000" points="299.6487,-394.6925 295.7416,-384.8444 292.6546,-394.9795 299.6487,-394.6925"/>
</g>
<!-- &#45;3205057696703284187 -->
<g id="node41" class="node">
<title>&#45;3205057696703284187</title>
<ellipse fill="none" stroke="#000000" cx="617" cy="-642.0971" rx="26.1352" ry="26.1352"/>
<text text-anchor="middle" x="617" y="-637.8971" font-family="Times,serif" font-size="14.00" fill="#000000">ones</text>
</g>
<!-- &#45;3205057696703284187&#45;&gt;7268727399350219970 -->
<g id="edge32" class="edge">
<title>&#45;3205057696703284187&#45;&gt;7268727399350219970</title>
<path fill="none" stroke="#000000" d="M617,-615.3527C617,-607.23 617,-598.28 617,-590.0598"/>
<polygon fill="#000000" stroke="#000000" points="620.5001,-589.8048 617,-579.8048 613.5001,-589.8049 620.5001,-589.8048"/>
</g>
<!-- 1359353852231337768 -->
<g id="node42" class="node">
<title>1359353852231337768</title>
<ellipse fill="none" stroke="#000000" cx="761" cy="-642.0971" rx="26.1352" ry="26.1352"/>
<text text-anchor="middle" x="761" y="-637.8971" font-family="Times,serif" font-size="14.00" fill="#000000">ones</text>
</g>
<!-- 1359353852231337768&#45;&gt;7268727399346724823 -->
<g id="edge33" class="edge">
<title>1359353852231337768&#45;&gt;7268727399346724823</title>
<path fill="none" stroke="#000000" d="M761,-615.3527C761,-607.23 761,-598.28 761,-590.0598"/>
<polygon fill="#000000" stroke="#000000" points="764.5001,-589.8048 761,-579.8048 757.5001,-589.8049 764.5001,-589.8048"/>
</g>
<!-- 1099921736100567685 -->
<g id="node43" class="node">
<title>1099921736100567685</title>
<ellipse fill="none" stroke="#000000" cx="403" cy="-642.0971" rx="26.1352" ry="26.1352"/>
<text text-anchor="middle" x="403" y="-637.8971" font-family="Times,serif" font-size="14.00" fill="#000000">ones</text>
</g>
<!-- 1099921736100567685&#45;&gt;7268726138152056098 -->
<g id="edge34" class="edge">
<title>1099921736100567685&#45;&gt;7268726138152056098</title>
<path fill="none" stroke="#000000" d="M403,-615.3527C403,-607.23 403,-598.28 403,-590.0598"/>
<polygon fill="#000000" stroke="#000000" points="406.5001,-589.8048 403,-579.8048 399.5001,-589.8049 406.5001,-589.8048"/>
</g>
<!-- &#45;265565162554269490 -->
<g id="node44" class="node">
<title>&#45;265565162554269490</title>
<ellipse fill="none" stroke="#000000" cx="885" cy="-464.2728" rx="26.1352" ry="26.1352"/>
<text text-anchor="middle" x="885" y="-460.0728" font-family="Times,serif" font-size="14.00" fill="#000000">ones</text>
</g>
<!-- &#45;265565162554269490&#45;&gt;7268726138150891049 -->
<g id="edge35" class="edge">
<title>&#45;265565162554269490&#45;&gt;7268726138150891049</title>
<path fill="none" stroke="#000000" d="M883.9175,-437.8859C883.3735,-424.6238 882.7138,-408.5425 882.1594,-395.0288"/>
<polygon fill="#000000" stroke="#000000" points="885.6487,-394.6925 881.7416,-384.8444 878.6546,-394.9795 885.6487,-394.6925"/>
</g>
<!-- &#45;1662898288670515665 -->
<g id="node45" class="node">
<title>&#45;1662898288670515665</title>
<ellipse fill="none" stroke="#000000" cx="995" cy="-642.0971" rx="26.1352" ry="26.1352"/>
<text text-anchor="middle" x="995" y="-637.8971" font-family="Times,serif" font-size="14.00" fill="#000000">ones</text>
</g>
<!-- &#45;1662898288670515665&#45;&gt;7268726138149726000 -->
<g id="edge36" class="edge">
<title>&#45;1662898288670515665&#45;&gt;7268726138149726000</title>
<path fill="none" stroke="#000000" d="M995,-615.3527C995,-607.23 995,-598.28 995,-590.0598"/>
<polygon fill="#000000" stroke="#000000" points="998.5001,-589.8048 995,-579.8048 991.5001,-589.8049 998.5001,-589.8048"/>
</g>
<!-- 7521534221788259921&#45;&gt;6550718666510556862 -->
<g id="edge37" class="edge">
<title>7521534221788259921&#45;&gt;6550718666510556862</title>
<path fill="none" stroke="#000000" d="M63.0001,-420.9368C62.1905,-412.1662 61.3591,-403.1587 60.6124,-395.0688"/>
<polygon fill="#000000" stroke="#000000" points="64.0929,-394.6953 59.6885,-385.0594 57.1225,-395.3388 64.0929,-394.6953"/>
</g>
<!-- 6781745110059698330&#45;&gt;6550718666509391813 -->
<g id="edge39" class="edge">
<title>6781745110059698330&#45;&gt;6550718666509391813</title>
<path fill="none" stroke="#000000" d="M292.3159,-225.638C291.7839,-216.9925 291.2385,-208.1293 290.7476,-200.1521"/>
<polygon fill="#000000" stroke="#000000" points="294.2261,-199.693 290.1184,-189.9269 287.2393,-200.123 294.2261,-199.693"/>
</g>
<!-- &#45;4380608228456035845&#45;&gt;6550718666508226764 -->
<g id="edge41" class="edge">
<title>&#45;4380608228456035845&#45;&gt;6550718666508226764</title>
<path fill="none" stroke="#000000" d="M439,-420.6527C439,-412.0072 439,-403.1439 439,-395.1667"/>
<polygon fill="#000000" stroke="#000000" points="442.5001,-394.9415 439,-384.9415 435.5001,-394.9416 442.5001,-394.9415"/>
</g>
<!-- 7789441259287130728&#45;&gt;6550717405313558039 -->
<g id="edge43" class="edge">
<title>7789441259287130728&#45;&gt;6550717405313558039</title>
<path fill="none" stroke="#000000" d="M211,-420.6527C211,-412.0072 211,-403.1439 211,-395.1667"/>
<polygon fill="#000000" stroke="#000000" points="214.5001,-394.9415 211,-384.9415 207.5001,-394.9416 214.5001,-394.9415"/>
</g>
<!-- 3002877650758473487&#45;&gt;6550717405314723088 -->
<g id="edge45" class="edge">
<title>3002877650758473487&#45;&gt;6550717405314723088</title>
<path fill="none" stroke="#000000" d="M649.4212,-420.6527C648.7119,-412.0072 647.9847,-403.1439 647.3302,-395.1667"/>
<polygon fill="#000000" stroke="#000000" points="650.7973,-394.6218 646.4913,-384.9415 643.8208,-395.1943 650.7973,-394.6218"/>
</g>
<!-- 4217288756584774062&#45;&gt;6550717405315888137 -->
<g id="edge47" class="edge">
<title>4217288756584774062&#45;&gt;6550717405315888137</title>
<path fill="none" stroke="#000000" d="M878.3159,-225.638C877.7839,-216.9925 877.2385,-208.1293 876.7476,-200.1521"/>
<polygon fill="#000000" stroke="#000000" points="880.2261,-199.693 876.1184,-189.9269 873.2393,-200.123 880.2261,-199.693"/>
</g>
<!-- &#45;533370936018820037&#45;&gt;6550721188904554508 -->
<g id="edge49" class="edge">
<title>&#45;533370936018820037&#45;&gt;6550721188904554508</title>
<path fill="none" stroke="#000000" d="M520.3159,-225.638C519.7839,-216.9925 519.2385,-208.1293 518.7476,-200.1521"/>
<polygon fill="#000000" stroke="#000000" points="522.2261,-199.693 518.1184,-189.9269 515.2393,-200.123 522.2261,-199.693"/>
</g>
<!-- 6910322827538865604&#45;&gt;6550721188903389459 -->
<g id="edge51" class="edge">
<title>6910322827538865604&#45;&gt;6550721188903389459</title>
<path fill="none" stroke="#000000" d="M797,-420.6527C797,-412.0072 797,-403.1439 797,-395.1667"/>
<polygon fill="#000000" stroke="#000000" points="800.5001,-394.9415 797,-384.9415 793.5001,-394.9416 800.5001,-394.9415"/>
</g>
<!-- &#45;126456760796043887&#45;&gt;6550721188906884606 -->
<g id="edge53" class="edge">
<title>&#45;126456760796043887&#45;&gt;6550721188906884606</title>
<path fill="none" stroke="#000000" d="M1027.0001,-420.9368C1026.1905,-412.1662 1025.3591,-403.1587 1024.6124,-395.0688"/>
<polygon fill="#000000" stroke="#000000" points="1028.0929,-394.6953 1023.6885,-385.0594 1021.1225,-395.3388 1028.0929,-394.6953"/>
</g>
</g>
</svg>
